lab6/dec_2to4_to_dec_4to8_tb.vcd
$date
	Mon Sep 22 14:17:58 2025
$end
$version
	Icarus Verilog
$end
$timescale
	1ns
$end
$scope module dec_2to4_to_dec_4to8_tb $end
$var wire 8 ! y [7:0] $end
$var reg 1 " en $end
$var reg 3 # w [2:0] $end
$scope module dec $end
$var wire 1 " en $end
$var wire 3 $ w [2:0] $end
$var wire 8 % y [7:0] $end
$scope module dec0 $end
$var wire 1 & en $end
$var wire 2 ' w [1:0] $end
$var reg 4 ( y [3:0] $end
$upscope $end
$scope module dec1 $end
$var wire 1 ) en $end
$var wire 2 * w [1:0] $end
$var reg 4 + y [3:0] $end
$upscope $end
$upscope $end
$upscope $end
$enddefinitions $end
#0
$dumpvars
b0 +
b0 *
0)
b1 (
b0 '
1&
b1 %
b0 $
b0 #
1"
b1 !
$end
#10
b10 !
b10 %
b10 (
b1 '
b1 *
b1 #
b1 $
#20
b100 !
b100 %
b100 (
b10 '
b10 *
b10 #
b10 $
#30
b1000 !
b1000 %
b1000 (
b11 '
b11 *
b11 #
b11 $
#40
0&
b0 (
b10000 !
b10000 %
b1 +
1)
b0 '
b0 *
b100 #
b100 $
#50
b100000 !
b100000 %
b10 +
b1 '
b1 *
b101 #
b101 $
#60
b1000000 !
b1000000 %
b100 +
b10 '
b10 *
b110 #
b110 $
#70
b10000000 !
b10000000 %
b1000 +
b11 '
b11 *
b111 #
b111 $
